{
	"info": {
		"_postman_id": "c1802563-35bd-46c7-95cf-b9eef7f5033a",
		"name": "serverless-member-api",
		"schema": "https://schema.getpostman.com/json/collection/v2.1.0/collection.json",
		"_exporter_id": "21582106"
	},
	"item": [
		{
			"name": "member",
			"item": [
				{
					"name": "POST: Adds a new member (email and last name does is not already present)",
					"event": [
						{
							"listen": "test",
							"script": {
								"exec": [
									"pm.test(\"POST: success\", function () {",
									"    pm.expect(pm.response.code).to.be.oneOf([200, 201, 202]);",
									"});",
									"",
									"pm.test(\"POST: return\", function () {",
									"    const jsonData = pm.response.json();",
									"    pm.expect(jsonData.member.email).to.eql(pm.environment.get(\"email\"));",
									"    pm.expect(jsonData.member.phone).to.eql(pm.environment.get(\"phone\"))",
									"    pm.expect(jsonData.member.lastName).to.eql(pm.environment.get(\"lastName\"))",
									"    pm.expect(jsonData.member.firstName).to.eql(pm.environment.get(\"firstName\"))",
									"    pm.expect(jsonData.member.gender).to.eql(pm.environment.get(\"gender\"))",
									"    pm.expect(jsonData.member.middleInitial).to.eql(pm.environment.get(\"middleInitial\"))",
									"});",
									"",
									"// clean up test",
									"pm.sendRequest({\"url\": `${pm.environment.get(\"basePath\")}/member?email=${pm.environment.get(\"email\")}&lastName=${pm.environment.get(\"lastName\")}`,\"method\": \"DELETE\"}, function (err, response) {",
									"    console.log(\"tried to delete if test add member is already present in the db...\")",
									"});"
								],
								"type": "text/javascript"
							}
						},
						{
							"listen": "prerequest",
							"script": {
								"exec": [
									"// delete, in case member already exists",
									"pm.sendRequest({\"url\": `${pm.environment.get(\"basePath\")}/member?email=${pm.environment.get(\"email\")}&lastName=${pm.environment.get(\"lastName\")}`,\"method\": \"DELETE\"}, function (err, response) {",
									"    console.log(\"tried to delete if test add member is already present in the db...\")",
									"});"
								],
								"type": "text/javascript"
							}
						}
					],
					"request": {
						"method": "POST",
						"header": [
							{
								"key": "Content-Type",
								"value": "application/json",
								"disabled": true
							},
							{
								"key": "Accept",
								"value": "application/json",
								"disabled": true
							}
						],
						"body": {
							"mode": "raw",
							"raw": "{\n    \"email\": \"{{email}}\",\n    \"lastName\": \"{{lastName}}\",\n    \"firstName\": \"{{firstName}}\",\n    \"middleInitial\": \"{{middleInitial}}\",\n    \"phone\": \"{{phone}}\",\n    \"gender\": \"{{gender}}\"\n}",
							"options": {
								"raw": {
									"language": "json"
								}
							}
						},
						"url": {
							"raw": "{{basePath}}/member",
							"host": [
								"{{basePath}}"
							],
							"path": [
								"member"
							]
						}
					},
					"response": [
						{
							"name": "GET response: Member added",
							"originalRequest": {
								"method": "POST",
								"header": [],
								"body": {
									"mode": "raw",
									"raw": "{\n  \"email\": \"test@test.com\",\n  \"lastName\": \"testey\",\n  \"firstName\": \"tester\",\n  \"middleInitial\": \"t\",\n  \"phone\": \"123-123-1234\",\n  \"gender\": \"male | female\"\n}",
									"options": {
										"raw": {
											"language": "json"
										}
									}
								},
								"url": {
									"raw": "localhost:3000/member",
									"host": [
										"localhost"
									],
									"port": "3000",
									"path": [
										"member"
									]
								}
							},
							"status": "OK",
							"code": 200,
							"_postman_previewlanguage": "json",
							"header": [
								{
									"key": "Content-Type",
									"value": "application/json"
								}
							],
							"cookie": [],
							"body": "{\n  \"value\": \"reference #/components/schemas/member not found in the OpenAPI spec\"\n}"
						},
						{
							"name": "server error: something bad happened while validating or fetching",
							"originalRequest": {
								"method": "POST",
								"header": [],
								"body": {
									"mode": "raw",
									"raw": "{\n  \"email\": \"test@test.com\",\n  \"lastName\": \"testey\",\n  \"firstName\": \"tester\",\n  \"middleInitial\": \"t\",\n  \"phone\": \"123-123-1234\",\n  \"gender\": \"male | female\"\n}",
									"options": {
										"raw": {
											"language": "json"
										}
									}
								},
								"url": {
									"raw": "{{baseUrl}}/member",
									"host": [
										"{{baseUrl}}"
									],
									"path": [
										"member"
									]
								}
							},
							"status": "Internal Server Error",
							"code": 500,
							"_postman_previewlanguage": "json",
							"header": [
								{
									"key": "Content-Type",
									"value": "application/json"
								}
							],
							"cookie": [],
							"body": "{\n  \"message\": \"Member does not exist in database.\"\n}"
						},
						{
							"name": "server error' content: application/json: schema: $ref: ",
							"originalRequest": {
								"method": "POST",
								"header": [],
								"body": {
									"mode": "raw",
									"raw": "{\n  \"email\": \"test@test.com\",\n  \"lastName\": \"testey\",\n  \"firstName\": \"tester\",\n  \"middleInitial\": \"t\",\n  \"phone\": \"123-123-1234\",\n  \"gender\": \"male | female\"\n}",
									"options": {
										"raw": {
											"language": "json"
										}
									}
								},
								"url": {
									"raw": "{{baseUrl}}/member",
									"host": [
										"{{baseUrl}}"
									],
									"path": [
										"member"
									]
								}
							},
							"status": "Internal Server Error",
							"code": 500,
							"_postman_previewlanguage": "text",
							"header": [
								{
									"key": "Content-Type",
									"value": "text/plain"
								}
							],
							"cookie": [],
							"body": ""
						}
					]
				},
				{
					"name": "POST: Adds a new member (email and last name does is not already present) Copy",
					"event": [
						{
							"listen": "test",
							"script": {
								"exec": [
									"pm.test(\"successful POST request\", function () {",
									"    console.log(\"response\",pm.response)",
									"    pm.expect(pm.response.code).to.eq(500);",
									"    pm.test(\"body to have a message\", function () {",
									"        pm.response.to.have.body(`{\"message\":\"Member with this email already exists.\"}`);",
									"    });",
									"});",
									"",
									"// clean up test",
									"pm.sendRequest({\"url\": `${pm.environment.get(\"basePath\")}/member?email=${pm.environment.get(\"email\")}&lastName=${pm.environment.get(\"lastName\")}`,\"method\": \"DELETE\"}, function (err, response) {",
									"    console.log(\"tried to delete if test add member is already present in the db...\")",
									"});"
								],
								"type": "text/javascript"
							}
						},
						{
							"listen": "prerequest",
							"script": {
								"exec": [
									"// add a new member to test adding the same member",
									"pm.sendRequest({\"url\": `${pm.environment.get(\"basePath\")}/member`,\"method\": \"POST\",",
									"\"body\": {",
									"        \"mode\": 'raw',",
									"        \"raw\": JSON.stringify({ ",
									"            \"email\": pm.environment.get(\"email\"), ",
									"            \"lastName\": pm.environment.get(\"lastName\"), ",
									"            \"firstName\": pm.environment.get(\"firstName\"), ",
									"            \"middleInitial\": pm.environment.get(\"middleInitial\"), ",
									"            \"gender\": pm.environment.get(\"gender\"), ",
									"            \"phone\": pm.environment.get(\"phone\"), ",
									"             })",
									"",
									"    }",
									"    }, function (err, response) {",
									"    console.log(\"Added a member for test...\")",
									"});"
								],
								"type": "text/javascript"
							}
						}
					],
					"request": {
						"method": "POST",
						"header": [
							{
								"key": "Content-Type",
								"value": "application/json"
							},
							{
								"key": "Accept",
								"value": "application/json"
							}
						],
						"body": {
							"mode": "raw",
							"raw": "{\n    \"email\": \"{{email}}\",\n    \"lastName\": \"{{lastName}}\",\n    \"firstName\": \"{{firstName}}\",\n    \"middleInitial\": \"{{middleInitial}}\",\n    \"phone\": \"{{phone}}\",\n    \"gender\": \"{{gender}}\"\n}",
							"options": {
								"raw": {
									"language": "json"
								}
							}
						},
						"url": {
							"raw": "{{basePath}}/member",
							"host": [
								"{{basePath}}"
							],
							"path": [
								"member"
							]
						}
					},
					"response": [
						{
							"name": "GET response: Member added",
							"originalRequest": {
								"method": "POST",
								"header": [],
								"body": {
									"mode": "raw",
									"raw": "{\n  \"email\": \"test@test.com\",\n  \"lastName\": \"testey\",\n  \"firstName\": \"tester\",\n  \"middleInitial\": \"t\",\n  \"phone\": \"123-123-1234\",\n  \"gender\": \"male | female\"\n}",
									"options": {
										"raw": {
											"language": "json"
										}
									}
								},
								"url": {
									"raw": "localhost:3000/member",
									"host": [
										"localhost"
									],
									"port": "3000",
									"path": [
										"member"
									]
								}
							},
							"status": "OK",
							"code": 200,
							"_postman_previewlanguage": "json",
							"header": [
								{
									"key": "Content-Type",
									"value": "application/json"
								}
							],
							"cookie": [],
							"body": "{\n  \"value\": \"reference #/components/schemas/member not found in the OpenAPI spec\"\n}"
						},
						{
							"name": "server error: something bad happened while validating or fetching",
							"originalRequest": {
								"method": "POST",
								"header": [],
								"body": {
									"mode": "raw",
									"raw": "{\n  \"email\": \"test@test.com\",\n  \"lastName\": \"testey\",\n  \"firstName\": \"tester\",\n  \"middleInitial\": \"t\",\n  \"phone\": \"123-123-1234\",\n  \"gender\": \"male | female\"\n}",
									"options": {
										"raw": {
											"language": "json"
										}
									}
								},
								"url": {
									"raw": "{{baseUrl}}/member",
									"host": [
										"{{baseUrl}}"
									],
									"path": [
										"member"
									]
								}
							},
							"status": "Internal Server Error",
							"code": 500,
							"_postman_previewlanguage": "json",
							"header": [
								{
									"key": "Content-Type",
									"value": "application/json"
								}
							],
							"cookie": [],
							"body": "{\n  \"message\": \"Member does not exist in database.\"\n}"
						},
						{
							"name": "server error' content: application/json: schema: $ref: ",
							"originalRequest": {
								"method": "POST",
								"header": [],
								"body": {
									"mode": "raw",
									"raw": "{\n  \"email\": \"test@test.com\",\n  \"lastName\": \"testey\",\n  \"firstName\": \"tester\",\n  \"middleInitial\": \"t\",\n  \"phone\": \"123-123-1234\",\n  \"gender\": \"male | female\"\n}",
									"options": {
										"raw": {
											"language": "json"
										}
									}
								},
								"url": {
									"raw": "{{baseUrl}}/member",
									"host": [
										"{{baseUrl}}"
									],
									"path": [
										"member"
									]
								}
							},
							"status": "Internal Server Error",
							"code": 500,
							"_postman_previewlanguage": "text",
							"header": [
								{
									"key": "Content-Type",
									"value": "text/plain"
								}
							],
							"cookie": [],
							"body": ""
						}
					]
				},
				{
					"name": "GET: Returns details about a member based on provided email and last name",
					"event": [
						{
							"listen": "prerequest",
							"script": {
								"exec": [
									"// add a new member to test adding the same member",
									"pm.sendRequest({\"url\": `${pm.environment.get(\"basePath\")}/member`,\"method\": \"POST\",",
									"\"body\": {",
									"        \"mode\": 'raw',",
									"        \"raw\": JSON.stringify({ ",
									"            \"email\": pm.environment.get(\"email\"), ",
									"            \"lastName\": pm.environment.get(\"lastName\"), ",
									"            \"firstName\": pm.environment.get(\"firstName\"), ",
									"            \"middleInitial\": pm.environment.get(\"middleInitial\"), ",
									"            \"gender\": pm.environment.get(\"gender\"), ",
									"            \"phone\": pm.environment.get(\"phone\"), ",
									"             })",
									"",
									"    }",
									"    }, function (err, response) {",
									"    console.log(\"Added a member for test...\")",
									"});"
								],
								"type": "text/javascript"
							}
						},
						{
							"listen": "test",
							"script": {
								"exec": [
									"pm.test(\"GET status code is success\", function () {",
									"    pm.response.to.have.status(200);",
									"})",
									"",
									"pm.test(\"GET: response\", function () {",
									"    const jsonData = pm.response.json();",
									"    pm.expect(jsonData.member.email).to.eql(pm.environment.get(\"email\"));",
									"    pm.expect(jsonData.member.phone).to.eql(pm.environment.get(\"phone\"))",
									"    pm.expect(jsonData.member.lastName).to.eql(pm.environment.get(\"lastName\"))",
									"    pm.expect(jsonData.member.firstName).to.eql(pm.environment.get(\"firstName\"))",
									"    pm.expect(jsonData.member.gender).to.eql(pm.environment.get(\"gender\"))",
									"    pm.expect(jsonData.member.middleInitial).to.eql(pm.environment.get(\"middleInitial\"))",
									"});",
									"",
									"// clean up test",
									"pm.sendRequest({\"url\": `${pm.environment.get(\"basePath\")}/member?email=${pm.environment.get(\"email\")}&lastName=${pm.environment.get(\"lastName\")}`,\"method\": \"DELETE\"}, function (err, response) {",
									"    console.log(\"tried to delete if test add member is already present in the db...\")",
									"});"
								],
								"type": "text/javascript"
							}
						}
					],
					"request": {
						"method": "GET",
						"header": [
							{
								"key": "Accept",
								"value": "application/json"
							}
						],
						"url": {
							"raw": "{{basePath}}/member?email=test@test.com&lastName=test",
							"host": [
								"{{basePath}}"
							],
							"path": [
								"member"
							],
							"query": [
								{
									"key": "email",
									"value": "test@test.com",
									"description": "(Required) member's email"
								},
								{
									"key": "lastName",
									"value": "test",
									"description": "(Required) member's last name"
								}
							]
						}
					},
					"response": [
						{
							"name": "GET response: Member meta",
							"originalRequest": {
								"method": "GET",
								"header": [],
								"url": {
									"raw": "localhost:3000/member?email=sit labore sunt amet voluptate&lastName=sit labore sunt amet voluptate",
									"host": [
										"localhost"
									],
									"port": "3000",
									"path": [
										"member"
									],
									"query": [
										{
											"key": "email",
											"value": "sit labore sunt amet voluptate"
										},
										{
											"key": "lastName",
											"value": "sit labore sunt amet voluptate"
										}
									]
								}
							},
							"status": "OK",
							"code": 200,
							"_postman_previewlanguage": "json",
							"header": [
								{
									"key": "Content-Type",
									"value": "application/json"
								}
							],
							"cookie": [],
							"body": "{\n  \"email\": \"test@test.com\",\n  \"lastName\": \"testey\",\n  \"firstName\": \"tester\",\n  \"middleInitial\": \"t\",\n  \"phone\": \"123-123-1234\",\n  \"gender\": \"male | female\"\n}"
						},
						{
							"name": "server error: something bad happened while validating or fetching",
							"originalRequest": {
								"method": "GET",
								"header": [],
								"url": {
									"raw": "{{baseUrl}}/member?email=sit labore sunt amet voluptate&lastName=sit labore sunt amet voluptate",
									"host": [
										"{{baseUrl}}"
									],
									"path": [
										"member"
									],
									"query": [
										{
											"key": "email",
											"value": "sit labore sunt amet voluptate"
										},
										{
											"key": "lastName",
											"value": "sit labore sunt amet voluptate"
										}
									]
								}
							},
							"status": "Internal Server Error",
							"code": 500,
							"_postman_previewlanguage": "json",
							"header": [
								{
									"key": "Content-Type",
									"value": "application/json"
								}
							],
							"cookie": [],
							"body": "{\n  \"message\": \"Member does not exist in database.\"\n}"
						},
						{
							"name": "server error' content: application/json: schema: $ref: ",
							"originalRequest": {
								"method": "GET",
								"header": [],
								"url": {
									"raw": "{{baseUrl}}/member?email=sit labore sunt amet voluptate&lastName=sit labore sunt amet voluptate",
									"host": [
										"{{baseUrl}}"
									],
									"path": [
										"member"
									],
									"query": [
										{
											"key": "email",
											"value": "sit labore sunt amet voluptate"
										},
										{
											"key": "lastName",
											"value": "sit labore sunt amet voluptate"
										}
									]
								}
							},
							"status": "Internal Server Error",
							"code": 500,
							"_postman_previewlanguage": "text",
							"header": [
								{
									"key": "Content-Type",
									"value": "text/plain"
								}
							],
							"cookie": [],
							"body": ""
						}
					]
				},
				{
					"name": "PUT: Updates an entire member record based on email and lastName. NOTE: only the updated fields will be in the response.",
					"event": [
						{
							"listen": "prerequest",
							"script": {
								"exec": [
									"// add a new member to test adding the same member",
									"pm.sendRequest({\"url\": `${pm.environment.get(\"basePath\")}/member`,\"method\": \"POST\",",
									"\"body\": {",
									"        \"mode\": 'raw',",
									"        \"raw\": JSON.stringify({ ",
									"            \"email\": pm.environment.get(\"email\"), ",
									"            \"lastName\": pm.environment.get(\"lastName\"), ",
									"            \"firstName\": pm.environment.get(\"firstName\"), ",
									"            \"middleInitial\": pm.environment.get(\"middleInitial\"), ",
									"            \"gender\": pm.environment.get(\"gender\"), ",
									"            \"phone\": pm.environment.get(\"phone\"), ",
									"             })",
									"",
									"    }",
									"    }, function (err, response) {",
									"    console.log(\"Added a member for PUT test...\")",
									"});"
								],
								"type": "text/javascript"
							}
						},
						{
							"listen": "test",
							"script": {
								"exec": [
									"pm.test(\"PUT status code is success\", function () {",
									"    pm.response.to.have.status(200);",
									"})",
									"",
									"pm.test(\"PUT: response\", function () {",
									"    const jsonData = pm.response.json();",
									"    pm.expect(jsonData.memberUpdated.phone).to.eql(pm.environment.get(\"phone_PUT\"))",
									"    pm.expect(jsonData.memberUpdated.firstName).to.eql(pm.environment.get(\"firstName_PUT\"))",
									"});",
									"",
									"// clean up test",
									"pm.sendRequest({\"url\": `${pm.environment.get(\"basePath\")}/member?email=${pm.environment.get(\"email\")}&lastName=${pm.environment.get(\"lastName\")}`,\"method\": \"DELETE\"}, function (err, response) {",
									"    console.log(\"tried to delete if test add member is already present in the db...\")",
									"});"
								],
								"type": "text/javascript"
							}
						}
					],
					"request": {
						"method": "PUT",
						"header": [
							{
								"key": "Content-Type",
								"value": "application/json"
							},
							{
								"key": "Accept",
								"value": "application/json"
							}
						],
						"body": {
							"mode": "raw",
							"raw": "{\n    \"firstName\": \"{{firstName_PUT}}\",\n    \"phone\": \"{{phone_PUT}}\"\n}",
							"options": {
								"raw": {
									"language": "json"
								}
							}
						},
						"url": {
							"raw": "{{basePath}}/member?email=test@test.com&lastName=test",
							"host": [
								"{{basePath}}"
							],
							"path": [
								"member"
							],
							"query": [
								{
									"key": "email",
									"value": "test@test.com",
									"description": "(Required) member's email"
								},
								{
									"key": "lastName",
									"value": "test",
									"description": "(Required) member's last name"
								}
							]
						}
					},
					"response": [
						{
							"name": "GET response: Member added",
							"originalRequest": {
								"method": "PUT",
								"header": [],
								"body": {
									"mode": "raw",
									"raw": "{\n  \"firstName\": \"tester\",\n  \"middleInitial\": \"t\",\n  \"phone\": \"123-123-1234\",\n  \"gender\": \"male | female\"\n}",
									"options": {
										"raw": {
											"language": "json"
										}
									}
								},
								"url": {
									"raw": "localhost:3000/member?email=sit labore sunt amet voluptate&lastName=sit labore sunt amet voluptate",
									"host": [
										"localhost"
									],
									"port": "3000",
									"path": [
										"member"
									],
									"query": [
										{
											"key": "email",
											"value": "sit labore sunt amet voluptate"
										},
										{
											"key": "lastName",
											"value": "sit labore sunt amet voluptate"
										}
									]
								}
							},
							"status": "OK",
							"code": 200,
							"_postman_previewlanguage": "json",
							"header": [
								{
									"key": "Content-Type",
									"value": "application/json"
								}
							],
							"cookie": [],
							"body": "{\n  \"value\": \"reference #/components/schemas/member not found in the OpenAPI spec\"\n}"
						},
						{
							"name": "server error: something bad happened while validating or fetching",
							"originalRequest": {
								"method": "PUT",
								"header": [],
								"body": {
									"mode": "raw",
									"raw": "{\n  \"firstName\": \"tester\",\n  \"middleInitial\": \"t\",\n  \"phone\": \"123-123-1234\",\n  \"gender\": \"male | female\"\n}",
									"options": {
										"raw": {
											"language": "json"
										}
									}
								},
								"url": {
									"raw": "{{baseUrl}}/member?email=sit labore sunt amet voluptate&lastName=sit labore sunt amet voluptate",
									"host": [
										"{{baseUrl}}"
									],
									"path": [
										"member"
									],
									"query": [
										{
											"key": "email",
											"value": "sit labore sunt amet voluptate"
										},
										{
											"key": "lastName",
											"value": "sit labore sunt amet voluptate"
										}
									]
								}
							},
							"status": "Internal Server Error",
							"code": 500,
							"_postman_previewlanguage": "json",
							"header": [
								{
									"key": "Content-Type",
									"value": "application/json"
								}
							],
							"cookie": [],
							"body": "{\n  \"message\": \"Member does not exist in database.\"\n}"
						},
						{
							"name": "server error' content: application/json: schema: $ref: ",
							"originalRequest": {
								"method": "PUT",
								"header": [],
								"body": {
									"mode": "raw",
									"raw": "{\n  \"firstName\": \"tester\",\n  \"middleInitial\": \"t\",\n  \"phone\": \"123-123-1234\",\n  \"gender\": \"male | female\"\n}",
									"options": {
										"raw": {
											"language": "json"
										}
									}
								},
								"url": {
									"raw": "{{baseUrl}}/member?email=sit labore sunt amet voluptate&lastName=sit labore sunt amet voluptate",
									"host": [
										"{{baseUrl}}"
									],
									"path": [
										"member"
									],
									"query": [
										{
											"key": "email",
											"value": "sit labore sunt amet voluptate"
										},
										{
											"key": "lastName",
											"value": "sit labore sunt amet voluptate"
										}
									]
								}
							},
							"status": "Internal Server Error",
							"code": 500,
							"_postman_previewlanguage": "text",
							"header": [
								{
									"key": "Content-Type",
									"value": "text/plain"
								}
							],
							"cookie": [],
							"body": ""
						}
					]
				},
				{
					"name": "DELETE: Deletes a member by email and last name",
					"event": [
						{
							"listen": "prerequest",
							"script": {
								"exec": [
									"// add a new member to test adding the same member",
									"pm.sendRequest({\"url\": `${pm.environment.get(\"basePath\")}/member`,\"method\": \"POST\",",
									"\"body\": {",
									"        \"mode\": 'raw',",
									"        \"raw\": JSON.stringify({ ",
									"            \"email\": pm.environment.get(\"email\"), ",
									"            \"lastName\": pm.environment.get(\"lastName\"), ",
									"            \"firstName\": pm.environment.get(\"firstName\"), ",
									"            \"middleInitial\": pm.environment.get(\"middleInitial\"), ",
									"            \"gender\": pm.environment.get(\"gender\"), ",
									"            \"phone\": pm.environment.get(\"phone\"), ",
									"             })",
									"",
									"    }",
									"    }, function (err, response) {",
									"    console.log(\"Added a member for PUT test...\")",
									"});"
								],
								"type": "text/javascript"
							}
						},
						{
							"listen": "test",
							"script": {
								"exec": [
									"pm.test(\"DELETE status code is success\", function () {",
									"    pm.response.to.have.status(200);",
									"})",
									"",
									"pm.test(\"DELETE: response\", function () {",
									"    const jsonData = pm.response.json();",
									"    pm.expect(jsonData.deletedMember.email).to.eql(pm.environment.get(\"email\"));",
									"    pm.expect(jsonData.deletedMember.phone).to.eql(pm.environment.get(\"phone\"))",
									"    pm.expect(jsonData.deletedMember.lastName).to.eql(pm.environment.get(\"lastName\"))",
									"    pm.expect(jsonData.deletedMember.firstName).to.eql(pm.environment.get(\"firstName\"))",
									"    pm.expect(jsonData.deletedMember.gender).to.eql(pm.environment.get(\"gender\"))",
									"    pm.expect(jsonData.deletedMember.middleInitial).to.eql(pm.environment.get(\"middleInitial\"))",
									"});",
									"",
									"// clean up test",
									"pm.sendRequest({\"url\": `${pm.environment.get(\"basePath\")}/member?email=${pm.environment.get(\"email\")}&lastName=${pm.environment.get(\"lastName\")}`,\"method\": \"DELETE\"}, function (err, response) {",
									"    console.log(\"tried to delete if test add member is already present in the db...\")",
									"});"
								],
								"type": "text/javascript"
							}
						}
					],
					"request": {
						"method": "DELETE",
						"header": [
							{
								"key": "Accept",
								"value": "application/json"
							}
						],
						"url": {
							"raw": "{{basePath}}/member?email=test@test.com&lastName=test",
							"host": [
								"{{basePath}}"
							],
							"path": [
								"member"
							],
							"query": [
								{
									"key": "email",
									"value": "test@test.com",
									"description": "(Required) member's email"
								},
								{
									"key": "lastName",
									"value": "test",
									"description": "(Required) member's last name"
								}
							]
						}
					},
					"response": [
						{
							"name": "DELETE response: Member that was deleted",
							"originalRequest": {
								"method": "DELETE",
								"header": [],
								"url": {
									"raw": "{{baseUrl}}/member?email=sit labore sunt amet voluptate&lastName=sit labore sunt amet voluptate",
									"host": [
										"{{baseUrl}}"
									],
									"path": [
										"member"
									],
									"query": [
										{
											"key": "email",
											"value": "sit labore sunt amet voluptate"
										},
										{
											"key": "lastName",
											"value": "sit labore sunt amet voluptate"
										}
									]
								}
							},
							"status": "OK",
							"code": 200,
							"_postman_previewlanguage": "json",
							"header": [
								{
									"key": "Content-Type",
									"value": "application/json"
								}
							],
							"cookie": [],
							"body": "{\n  \"value\": \"reference #/components/schemas/member not found in the OpenAPI spec\"\n}"
						},
						{
							"name": "server error: something bad happened while validating or fetching",
							"originalRequest": {
								"method": "DELETE",
								"header": [],
								"url": {
									"raw": "{{baseUrl}}/member?email=sit labore sunt amet voluptate&lastName=sit labore sunt amet voluptate",
									"host": [
										"{{baseUrl}}"
									],
									"path": [
										"member"
									],
									"query": [
										{
											"key": "email",
											"value": "sit labore sunt amet voluptate"
										},
										{
											"key": "lastName",
											"value": "sit labore sunt amet voluptate"
										}
									]
								}
							},
							"status": "Internal Server Error",
							"code": 500,
							"_postman_previewlanguage": "json",
							"header": [
								{
									"key": "Content-Type",
									"value": "application/json"
								}
							],
							"cookie": [],
							"body": "{\n  \"message\": \"Member does not exist in database.\"\n}"
						},
						{
							"name": "server error' content: application/json: schema: $ref: ",
							"originalRequest": {
								"method": "DELETE",
								"header": [],
								"url": {
									"raw": "{{baseUrl}}/member?email=sit labore sunt amet voluptate&lastName=sit labore sunt amet voluptate",
									"host": [
										"{{baseUrl}}"
									],
									"path": [
										"member"
									],
									"query": [
										{
											"key": "email",
											"value": "sit labore sunt amet voluptate"
										},
										{
											"key": "lastName",
											"value": "sit labore sunt amet voluptate"
										}
									]
								}
							},
							"status": "Internal Server Error",
							"code": 500,
							"_postman_previewlanguage": "text",
							"header": [
								{
									"key": "Content-Type",
									"value": "text/plain"
								}
							],
							"cookie": [],
							"body": ""
						}
					]
				}
			]
		}
	],
	"event": [
		{
			"listen": "prerequest",
			"script": {
				"type": "text/javascript",
				"exec": [
					""
				]
			}
		},
		{
			"listen": "test",
			"script": {
				"type": "text/javascript",
				"exec": [
					""
				]
			}
		}
	],
	"variable": [
		{
			"key": "basePath",
			"value": "localhost:3000",
			"type": "string"
		}
	]
}